standalone_uart_lite/project_1.sim/sim_1/behav/xsim/dump.vcd
$date
   Sat Mar 26 11:31:28 2022
$end
$version
  2020.2
$end
$timescale
  1ps
$end
$scope module teststandaloneuart $end
$var reg 4 ! S_AXI_0_araddr [3:0] $end
$var reg 1 " S_AXI_0_arready $end
$var reg 1 # S_AXI_0_arvalid $end
$var reg 4 $ S_AXI_0_awaddr [3:0] $end
$var reg 1 % S_AXI_0_awready $end
$var reg 1 & S_AXI_0_awvalid $end
$var reg 1 ' S_AXI_0_bready $end
$var reg 2 ( S_AXI_0_bresp [1:0] $end
$var reg 1 ) S_AXI_0_bvalid $end
$var reg 32 * S_AXI_0_rdata [31:0] $end
$var reg 1 + S_AXI_0_rready $end
$var reg 2 , S_AXI_0_rresp [1:0] $end
$var reg 1 - S_AXI_0_rvalid $end
$var reg 32 . S_AXI_0_wdata [31:0] $end
$var reg 1 / S_AXI_0_wready $end
$var reg 4 0 S_AXI_0_wstrb [3:0] $end
$var reg 1 1 S_AXI_0_wvalid $end
$var reg 1 2 UART_0_txd $end
$var reg 1 3 interrupt_0 $end
$var reg 1 4 s_axi_aclk_0 $end
$var reg 1 5 s_axi_aresetn_0 $end
$upscope $end
$enddefinitions $end
#0
$dumpvars
bx !
x"
x#
bx $
x%
x&
1'
b0 (
0)
bx *
x+
b0 ,
0-
bx .
x/
b0 0
x1
x2
x3
x4
x5
$end
#5000
b100 $
1&
b1010 .
11
04
15
#6000
14
#8000
04
#10000
0"
1%
bx0 (
1/
14
#12000
04
#14000
0%
b0 (
1)
0/
14
#16000
04
#18000
0)
14
#20000
04
#22000
14
#24000
04
#25000
b1100 $
#26000
1%
1/
14
#28000
04
#30000
0%
1)
b10000 .
0/
14
#32000
04
#34000
0)
14
#35000
b1000 !
1#
1+
#36000
04
#38000
14
#40000
04
#42000
1"
14
#44000
04
#46000
0"
1-
14
#48000
04
#50000
0-
14
#52000
04
#54000
14
#56000
04
#58000
1"
14
#60000
04
#62000
0"
1-
14
#64000
04
#66000
0-
14
#68000
04
#70000
14
#72000
04
#74000
1"
14
#76000
04
#78000
0"
1-
14
#80000
04
#82000
0-
14
#84000
04
#86000
14
#88000
04
#90000
1"
14
#92000
04
#94000
0"
1-
14
#96000
04
#98000
0-
14
#100000
04
#102000
14
#104000
04
#106000
1"
14
#108000
04
#110000
0"
1-
14
#112000
04
#114000
0-
14
#116000
04
#118000
14
#120000
04
#122000
1"
14
#124000
04
#126000
0"
1-
14
#128000
04
#130000
0-
14
#132000
04
#134000
14
#136000
04
#138000
1"
14
#140000
04
#142000
0"
1-
14
#144000
04
#146000
0-
14
#148000
04
#150000
14
#152000
04
#154000
1"
14
#156000
04
#158000
0"
1-
14
#160000
04
#162000
0-
14
#164000
04
#166000
14
#168000
04
#170000
1"
14
#172000
04
#174000
0"
1-
14
#176000
04
#178000
0-
14
#180000
04
#182000
14
#184000
04
#186000
1"
14
#188000
04
#190000
0"
1-
14
#192000
04
#194000
0-
14
#196000
04
#198000
14
#200000
04
#202000
1"
14
#204000
04
#206000
0"
1-
14
#208000
04
#210000
0-
14
#212000
04
#214000
14
#216000
04
#218000
1"
14
#220000
04
#222000
0"
1-
14
#224000
04
#226000
0-
14
#228000
04
#230000
14
#232000
04
#234000
1"
14
